Eksploratorna analiza prometnih nesreća na području Velikog Londona tijekom razdoblja 2020. – 2022. godine
…
## `summarise()` has grouped output by 'rounded_longitude'. You can override using
## the `.groups` argument.

cat("Najčešća mjesta nesreća (zaokružena na 50 metara):\n")

## Najčešća mjesta nesreća (zaokružena na 50 metara):

print(collisions_rounded)

## # A tibble: 120 × 3
## # Groups:   rounded_longitude [107]
##    rounded_longitude rounded_latitude count
##                <dbl>            <dbl> <int>
##  1           -0.253              51.6    23
##  2           -0.173              51.5    23
##  3           -0.130              51.5    23
##  4           -0.072              51.6    22
##  5           -0.130              51.5    21
##  6           -0.194              51.6    18
##  7           -0.126              51.6    18
##  8           -0.109              51.6    18
##  9           -0.0572             51.5    18
## 10           -0.139              51.5    17
## # ℹ 110 more rows
…
